# 3ds Max Wavefront OBJ Exporter v0.97b - (c)2007 guruware
# File Created: 29.03.2014 12:00:53

newmtl wood_old_S
	Ns 10.0000
	Ni 1.5000
	d 1.0000
	Tr 0.0000
	Tf 1.0000 1.0000 1.0000 
	illum 2
	Ka 0.5880 0.5880 0.5880
	Kd 0.5880 0.5880 0.5880
	Ks 0.0000 0.0000 0.0000
	Ke 0.0000 0.0000 0.0000
	map_Ka C:\Program Files (x86)\X-Ray CoP SDK\editors\gamedata\textures\wood\wood_collect.dds
	map_Kd C:\Program Files (x86)\X-Ray CoP SDK\editors\gamedata\textures\wood\wood_collect.dds

newmtl wood_doski_1_S
	Ns 10.0000
	Ni 1.5000
	d 1.0000
	Tr 0.0000
	Tf 1.0000 1.0000 1.0000 
	illum 2
	Ka 0.5880 0.5880 0.5880
	Kd 0.5880 0.5880 0.5880
	Ks 0.0000 0.0000 0.0000
	Ke 0.0000 0.0000 0.0000
	map_Ka C:\Program Files (x86)\X-Ray CoP SDK\editors\gamedata\textures\wood\wood_doski_1.dds
	map_Kd C:\Program Files (x86)\X-Ray CoP SDK\editors\gamedata\textures\wood\wood_doski_1.dds

newmtl wood_doski_1_S4
	Ns 10.0000
	Ni 1.5000
	d 1.0000
	Tr 0.0000
	Tf 1.0000 1.0000 1.0000 
	illum 2
	Ka 0.5880 0.5880 0.5880
	Kd 0.5880 0.5880 0.5880
	Ks 0.0000 0.0000 0.0000
	Ke 0.0000 0.0000 0.0000
	map_Ka C:\Program Files (x86)\X-Ray CoP SDK\editors\gamedata\textures\wood\wood_doski_1.dds
	map_Kd C:\Program Files (x86)\X-Ray CoP SDK\editors\gamedata\textures\wood\wood_doski_1.dds

newmtl wood_old_iov_S1
	Ns 10.0000
	Ni 1.5000
	d 1.0000
	Tr 0.0000
	Tf 1.0000 1.0000 1.0000 
	illum 2
	Ka 0.5880 0.5880 0.5880
	Kd 0.5880 0.5880 0.5880
	Ks 0.0000 0.0000 0.0000
	Ke 0.0000 0.0000 0.0000
	map_Ka C:\Program Files (x86)\X-Ray CoP SDK\editors\gamedata\textures\wood\wood_old_iov.dds
	map_Kd C:\Program Files (x86)\X-Ray CoP SDK\editors\gamedata\textures\wood\wood_old_iov.dds

newmtl wood_walls8_S2
	Ns 10.0000
	Ni 1.5000
	d 1.0000
	Tr 0.0000
	Tf 1.0000 1.0000 1.0000 
	illum 2
	Ka 0.5880 0.5880 0.5880
	Kd 0.5880 0.5880 0.5880
	Ks 0.0000 0.0000 0.0000
	Ke 0.0000 0.0000 0.0000
	map_Ka C:\Program Files (x86)\X-Ray CoP SDK\editors\gamedata\textures\wood\wood_walls8.dds
	map_Kd C:\Program Files (x86)\X-Ray CoP SDK\editors\gamedata\textures\wood\wood_walls8.dds

newmtl wood_spil_1_S
	Ns 10.0000
	Ni 1.5000
	d 1.0000
	Tr 0.0000
	Tf 1.0000 1.0000 1.0000 
	illum 2
	Ka 0.5880 0.5880 0.5880
	Kd 0.5880 0.5880 0.5880
	Ks 0.0000 0.0000 0.0000
	Ke 0.0000 0.0000 0.0000
	map_Ka C:\Program Files (x86)\X-Ray CoP SDK\editors\gamedata\textures\wood\wood_spil_1.dds
	map_Kd C:\Program Files (x86)\X-Ray CoP SDK\editors\gamedata\textures\wood\wood_spil_1.dds
