# 3ds Max Wavefront OBJ Exporter v0.97b - (c)2007 guruware
# File Created: 03.04.2012 22:44:42

mtllib bullet.mtl

#
# object Bullet004
#

v  -0.0980 0.1697 -0.5282
v  -0.0980 0.1697 -0.4990
v  0.0000 0.1960 -0.4990
v  0.0000 0.1960 -0.5282
v  -0.1697 0.0980 -0.5282
v  -0.1697 0.0980 -0.4990
v  -0.1960 0.0000 -0.5282
v  -0.1960 0.0000 -0.4990
v  -0.1697 -0.0980 -0.5282
v  -0.1697 -0.0980 -0.4990
v  -0.0980 -0.1697 -0.5282
v  -0.0980 -0.1697 -0.4990
v  -0.0000 -0.1960 -0.5282
v  -0.0000 -0.1960 -0.4990
v  0.0980 -0.1697 -0.5282
v  0.0980 -0.1697 -0.4990
v  0.1697 -0.0980 -0.5282
v  0.1697 -0.0980 -0.4990
v  0.1960 -0.0000 -0.5282
v  0.1960 -0.0000 -0.4990
v  0.1697 0.0980 -0.5282
v  0.1697 0.0980 -0.4990
v  0.0980 0.1697 -0.5282
v  0.0980 0.1697 -0.4990
v  -0.0882 0.1528 -0.4994
v  0.0000 0.1764 -0.4994
v  -0.1528 0.0882 -0.4994
v  -0.1764 0.0000 -0.4994
v  -0.1528 -0.0882 -0.4994
v  -0.0882 -0.1528 -0.4994
v  -0.0000 -0.1764 -0.4994
v  0.0882 -0.1528 -0.4994
v  0.1528 -0.0882 -0.4994
v  0.1764 -0.0000 -0.4994
v  0.1528 0.0882 -0.4994
v  0.0882 0.1528 -0.4994
v  -0.0882 0.1528 -0.4594
v  -0.0980 0.1697 -0.3985
v  0.0000 0.1960 -0.3985
v  0.0000 0.1764 -0.4594
v  -0.1528 0.0882 -0.4594
v  -0.1697 0.0980 -0.3985
v  -0.1764 0.0000 -0.4594
v  -0.1960 0.0000 -0.3985
v  -0.1528 -0.0882 -0.4594
v  -0.1697 -0.0980 -0.3985
v  -0.0882 -0.1528 -0.4594
v  -0.0980 -0.1697 -0.3985
v  -0.0000 -0.1764 -0.4594
v  -0.0000 -0.1960 -0.3985
v  0.0882 -0.1528 -0.4594
v  0.0980 -0.1697 -0.3985
v  0.1528 -0.0882 -0.4594
v  0.1697 -0.0980 -0.3985
v  0.1764 -0.0000 -0.4594
v  0.1960 -0.0000 -0.3985
v  0.1528 0.0882 -0.4594
v  0.1697 0.0980 -0.3985
v  0.0882 0.1528 -0.4594
v  0.0980 0.1697 -0.3985
v  -0.0980 0.1697 0.1943
v  0.0000 0.1960 0.1943
v  -0.1697 0.0980 0.1943
v  -0.1960 0.0000 0.1943
v  -0.1697 -0.0980 0.1943
v  -0.0980 -0.1697 0.1943
v  -0.0000 -0.1960 0.1943
v  0.0980 -0.1697 0.1943
v  0.1697 -0.0980 0.1943
v  0.1960 -0.0000 0.1943
v  0.1697 0.0980 0.1943
v  0.0980 0.1697 0.1943
v  -0.0919 0.1592 0.1946
v  0.0000 0.1839 0.1946
v  -0.1592 0.0919 0.1946
v  -0.1839 0.0000 0.1946
v  -0.1592 -0.0919 0.1946
v  -0.0919 -0.1592 0.1946
v  -0.0000 -0.1839 0.1946
v  0.0919 -0.1592 0.1946
v  0.1592 -0.0919 0.1946
v  0.1839 -0.0000 0.1946
v  0.1592 0.0919 0.1946
v  0.0919 0.1592 0.1946
v  -0.0919 0.1592 0.2286
v  -0.0820 0.1420 0.3784
v  0.0000 0.1639 0.3784
v  0.0000 0.1839 0.2286
v  -0.1592 0.0919 0.2286
v  -0.1420 0.0820 0.3784
v  -0.1839 0.0000 0.2286
v  -0.1639 0.0000 0.3784
v  -0.1592 -0.0919 0.2286
v  -0.1420 -0.0820 0.3784
v  -0.0919 -0.1592 0.2286
v  -0.0820 -0.1420 0.3784
v  -0.0000 -0.1839 0.2286
v  -0.0000 -0.1639 0.3784
v  0.0919 -0.1592 0.2286
v  0.0820 -0.1420 0.3784
v  0.1592 -0.0919 0.2286
v  0.1420 -0.0820 0.3784
v  0.1839 -0.0000 0.2286
v  0.1639 -0.0000 0.3784
v  0.1592 0.0919 0.2286
v  0.1420 0.0820 0.3784
v  0.0919 0.1592 0.2286
v  0.0820 0.1420 0.3784
v  -0.0574 0.0994 0.5282
v  0.0000 0.1147 0.5282
v  -0.0994 0.0574 0.5282
v  -0.1147 0.0000 0.5282
v  -0.0994 -0.0574 0.5282
v  -0.0574 -0.0994 0.5282
v  0.0000 -0.1147 0.5282
v  0.0574 -0.0994 0.5282
v  0.0994 -0.0574 0.5282
v  0.1147 -0.0000 0.5282
v  0.0994 0.0574 0.5282
v  0.0574 0.0994 0.5282
v  0.0391 0.0677 0.5282
v  0.0000 0.0781 0.5282
v  0.0000 0.0781 0.5244
v  0.0391 0.0677 0.5244
v  -0.0266 0.0460 0.4744
v  -0.0460 0.0266 0.4744
v  -0.0531 0.0000 0.4744
v  0.0266 0.0460 0.4744
v  -0.0460 -0.0266 0.4744
v  -0.0266 -0.0460 0.4744
v  0.0266 -0.0460 0.4744
v  0.0000 -0.0531 0.4744
v  0.0460 -0.0266 0.4744
v  0.0531 0.0000 0.4744
v  0.0460 0.0266 0.4744
v  0.0000 0.0531 0.4744
v  -0.0391 0.0677 0.5282
v  -0.0391 0.0677 0.5244
v  -0.0677 0.0391 0.5282
v  -0.0677 0.0391 0.5244
v  -0.0781 -0.0000 0.5282
v  -0.0781 0.0000 0.5244
v  -0.0677 -0.0391 0.5282
v  -0.0677 -0.0391 0.5244
v  -0.0391 -0.0677 0.5282
v  -0.0391 -0.0677 0.5244
v  0.0000 -0.0781 0.5282
v  0.0000 -0.0781 0.5244
v  0.0391 -0.0677 0.5282
v  0.0391 -0.0677 0.5244
v  0.0677 -0.0391 0.5282
v  0.0677 -0.0391 0.5244
v  0.0781 -0.0000 0.5282
v  0.0781 -0.0000 0.5244
v  0.0677 0.0391 0.5282
v  0.0677 0.0391 0.5244
# 156 vertices

vn -0.5000 0.8660 0.0000
vn 0.0000 1.0000 -0.0000
vn -0.8660 0.5000 -0.0000
vn -1.0000 0.0000 0.0000
vn -0.8660 -0.5000 0.0000
vn -0.5000 -0.8660 0.0000
vn -0.0000 -1.0000 0.0000
vn 0.5000 -0.8660 -0.0000
vn 0.8660 -0.5000 0.0000
vn 1.0000 -0.0000 -0.0000
vn 0.8660 0.5000 -0.0000
vn 0.5000 0.8660 -0.0000
vn 0.0092 -0.0160 0.9998
vn 0.0000 -0.0185 0.9998
vn 0.0160 -0.0092 0.9998
vn 0.0185 -0.0000 0.9998
vn 0.0160 0.0092 0.9998
vn 0.0092 0.0160 0.9998
vn 0.0000 0.0185 0.9998
vn -0.0092 0.0160 0.9998
vn -0.0160 0.0092 0.9998
vn -0.0185 -0.0000 0.9998
vn -0.0160 -0.0092 0.9998
vn -0.0092 -0.0160 0.9998
vn -0.4763 0.8250 -0.3042
vn 0.0000 0.9526 -0.3042
vn -0.8250 0.4763 -0.3042
vn -0.9526 0.0000 -0.3042
vn -0.8250 -0.4763 -0.3042
vn -0.4763 -0.8250 -0.3042
vn -0.0000 -0.9526 -0.3042
vn 0.4763 -0.8250 -0.3042
vn 0.8250 -0.4763 -0.3042
vn 0.9526 -0.0000 -0.3042
vn 0.8250 0.4763 -0.3042
vn 0.4763 0.8250 -0.3042
vn 0.0000 1.0000 0.0000
vn -0.8660 0.5000 0.0000
vn -0.5000 -0.8660 -0.0000
vn -0.0000 -1.0000 -0.0000
vn 0.8660 -0.5000 -0.0000
vn 0.5000 0.8660 0.0000
vn -0.0103 0.0179 0.9998
vn 0.0000 0.0206 0.9998
vn -0.0179 0.0103 0.9998
vn -0.0206 0.0000 0.9998
vn -0.0179 -0.0103 0.9998
vn -0.0103 -0.0179 0.9998
vn 0.0000 -0.0206 0.9998
vn 0.0103 -0.0179 0.9998
vn 0.0179 -0.0103 0.9998
vn 0.0206 -0.0000 0.9998
vn 0.0179 0.0103 0.9998
vn 0.0103 0.0179 0.9998
vn -0.4989 0.8642 0.0650
vn -0.4879 0.8451 0.2183
vn 0.0000 0.9759 0.2183
vn 0.0000 0.9979 0.0650
vn -0.8642 0.4989 0.0650
vn -0.8451 0.4879 0.2183
vn -0.9979 0.0000 0.0650
vn -0.9759 0.0000 0.2183
vn -0.8642 -0.4989 0.0650
vn -0.8451 -0.4879 0.2183
vn -0.4989 -0.8642 0.0650
vn -0.4879 -0.8451 0.2183
vn -0.0000 -0.9979 0.0650
vn -0.0000 -0.9759 0.2183
vn 0.4989 -0.8642 0.0650
vn 0.4879 -0.8451 0.2183
vn 0.8642 -0.4989 0.0650
vn 0.8451 -0.4879 0.2183
vn 0.9979 -0.0000 0.0650
vn 0.9759 -0.0000 0.2183
vn 0.8642 0.4989 0.0650
vn 0.8451 0.4879 0.2183
vn 0.4989 0.8642 0.0650
vn 0.4879 0.8451 0.2183
vn -0.4753 0.8233 0.3102
vn 0.0000 0.9507 0.3102
vn -0.8233 0.4753 0.3102
vn -0.9507 -0.0000 0.3102
vn -0.8233 -0.4753 0.3102
vn -0.4753 -0.8233 0.3102
vn -0.0000 -0.9507 0.3102
vn 0.4753 -0.8233 0.3102
vn 0.8233 -0.4753 0.3102
vn 0.9507 -0.0000 0.3102
vn 0.8233 0.4753 0.3102
vn 0.4753 0.8233 0.3102
vn -0.0000 0.0000 -1.0000
vn -0.5000 0.8660 -0.0000
vn 0.5000 -0.8660 0.0000
vn -0.0000 -0.9754 0.2206
vn -0.4877 -0.8447 0.2206
vn 0.0000 0.0000 1.0000
vn 0.0000 -0.0000 1.0000
vn -0.0000 0.0000 1.0000
vn -0.0000 -0.0000 1.0000
vn 0.4877 -0.8447 0.2206
vn 0.8447 -0.4877 0.2206
vn 1.0000 0.0000 -0.0000
vn 0.9754 -0.0000 0.2206
vn 0.8660 0.5000 0.0000
vn 0.8447 0.4877 0.2206
vn 0.4877 0.8447 0.2206
vn 0.0000 0.9754 0.2206
vn -0.4877 0.8447 0.2206
vn -0.8447 0.4877 0.2206
vn -0.9754 0.0000 0.2206
vn -0.8660 -0.5000 -0.0000
vn -0.8447 -0.4877 0.2206
vn 0.4478 -0.7755 0.4450
vn -0.0000 -0.8955 0.4450
vn 0.7755 -0.4478 0.4450
vn 0.8955 -0.0000 0.4450
vn 0.7755 0.4478 0.4450
vn 0.4478 0.7755 0.4450
vn 0.0000 0.8955 0.4450
vn -0.4478 0.7755 0.4450
vn -0.7755 0.4478 0.4450
vn -0.8955 -0.0000 0.4450
vn -0.7755 -0.4478 0.4450
vn -0.4478 -0.7755 0.4450
# 124 vertex normals

vt 0.3787 0.2025 0.5000
vt 0.3787 0.2226 0.5000
vt 0.3168 0.2226 0.5000
vt 0.3168 0.2025 0.5000
vt 0.4407 0.2025 0.5000
vt 0.4407 0.2226 0.5000
vt 0.5026 0.2025 0.5000
vt 0.5026 0.2226 0.5000
vt 0.5646 0.2025 0.5000
vt 0.5646 0.2226 0.5000
vt 0.6265 0.2025 0.5000
vt 0.6265 0.2226 0.5000
vt 0.6885 0.2025 0.5000
vt 0.6885 0.2226 0.5000
vt 0.7504 0.2025 0.5000
vt 0.7504 0.2226 0.5000
vt 0.0690 0.2025 0.5000
vt 0.0690 0.2226 0.5000
vt 0.0071 0.2226 0.5000
vt 0.0071 0.2025 0.5000
vt 0.1310 0.2025 0.5000
vt 0.1310 0.2226 0.5000
vt 0.1929 0.2025 0.5000
vt 0.1929 0.2226 0.5000
vt 0.2549 0.2025 0.5000
vt 0.2549 0.2226 0.5000
vt 0.8173 0.6828 0.0000
vt 0.8232 0.6727 0.0000
vt 0.8756 0.6868 0.0000
vt 0.8756 0.6984 0.0000
vt 0.7747 0.6401 0.0000
vt 0.7848 0.6343 0.0000
vt 0.7591 0.5819 0.0000
vt 0.7707 0.5819 0.0000
vt 0.7747 0.5236 0.0000
vt 0.7848 0.5294 0.0000
vt 0.8173 0.4809 0.0000
vt 0.8232 0.4910 0.0000
vt 0.8756 0.4653 0.0000
vt 0.8756 0.4770 0.0000
vt 0.9339 0.4809 0.0000
vt 0.9281 0.4910 0.0000
vt 0.9766 0.5236 0.0000
vt 0.9665 0.5294 0.0000
vt 0.9922 0.5819 0.0000
vt 0.9805 0.5819 0.0000
vt 0.9766 0.6401 0.0000
vt 0.9665 0.6343 0.0000
vt 0.9339 0.6828 0.0000
vt 0.9281 0.6727 0.0000
vt 0.3787 0.2499 0.4500
vt 0.3787 0.2920 0.5000
vt 0.3168 0.2920 0.5000
vt 0.3168 0.2499 0.4500
vt 0.4407 0.2499 0.4500
vt 0.4407 0.2920 0.5000
vt 0.5026 0.2499 0.4500
vt 0.5026 0.2920 0.5000
vt 0.5646 0.2499 0.4500
vt 0.5646 0.2920 0.5000
vt 0.6265 0.2499 0.4500
vt 0.6265 0.2920 0.5000
vt 0.6885 0.2499 0.4500
vt 0.6885 0.2920 0.5000
vt 0.7504 0.2499 0.4500
vt 0.7504 0.2920 0.5000
vt 0.0690 0.2499 0.4500
vt 0.0690 0.2920 0.5000
vt 0.0071 0.2920 0.5000
vt 0.0071 0.2499 0.4500
vt 0.1310 0.2499 0.4500
vt 0.1310 0.2920 0.5000
vt 0.1929 0.2499 0.4500
vt 0.1929 0.2920 0.5000
vt 0.2549 0.2499 0.4500
vt 0.2549 0.2920 0.5000
vt 0.3787 0.7011 0.5000
vt 0.3168 0.7011 0.5000
vt 0.4407 0.7011 0.5000
vt 0.5026 0.7011 0.5000
vt 0.5646 0.7011 0.5000
vt 0.6265 0.7011 0.5000
vt 0.6885 0.7011 0.5000
vt 0.7504 0.7011 0.5000
vt 0.0690 0.7011 0.5000
vt 0.0071 0.7011 0.5000
vt 0.1310 0.7011 0.5000
vt 0.1929 0.7011 0.5000
vt 0.2549 0.7011 0.5000
vt 0.7747 0.5235 0.0000
vt 0.7810 0.5271 0.0000
vt 0.7663 0.5818 0.0000
vt 0.7591 0.5818 0.0000
vt 0.8174 0.4809 0.0000
vt 0.8210 0.4871 0.0000
vt 0.8757 0.4653 0.0000
vt 0.8757 0.4725 0.0000
vt 0.9303 0.4871 0.0000
vt 0.9766 0.5235 0.0000
vt 0.9704 0.5271 0.0000
vt 0.9922 0.5818 0.0000
vt 0.9850 0.5818 0.0000
vt 0.9704 0.6365 0.0000
vt 0.9303 0.6765 0.0000
vt 0.8757 0.6984 0.0000
vt 0.8757 0.6912 0.0000
vt 0.8174 0.6828 0.0000
vt 0.8210 0.6765 0.0000
vt 0.7810 0.6365 0.0000
vt 0.4407 0.7581 0.4691
vt 0.4407 0.8739 0.4183
vt 0.3788 0.8739 0.4183
vt 0.3788 0.7581 0.4691
vt 0.5027 0.7581 0.4691
vt 0.5027 0.8739 0.4183
vt 0.5646 0.7581 0.4691
vt 0.5646 0.8739 0.4183
vt 0.6266 0.7581 0.4691
vt 0.6266 0.8739 0.4183
vt 0.6885 0.7581 0.4691
vt 0.6885 0.8739 0.4183
vt 0.7504 0.7581 0.4691
vt 0.7504 0.8739 0.4183
vt 0.0690 0.7581 0.4691
vt 0.0690 0.8739 0.4183
vt 0.0071 0.8739 0.4183
vt 0.0071 0.7581 0.4691
vt 0.1310 0.7581 0.4691
vt 0.1310 0.8739 0.4183
vt 0.1929 0.7581 0.4691
vt 0.1929 0.8739 0.4183
vt 0.2549 0.7581 0.4691
vt 0.2549 0.8739 0.4183
vt 0.3168 0.7581 0.4691
vt 0.3168 0.8739 0.4183
vt 0.4407 0.9896 0.2927
vt 0.3788 0.9896 0.2927
vt 0.5027 0.9896 0.2927
vt 0.5646 0.9896 0.2927
vt 0.6266 0.9896 0.2927
vt 0.6885 0.9896 0.2927
vt 0.7504 0.9896 0.2927
vt 0.0690 0.9896 0.2927
vt 0.0071 0.9896 0.2927
vt 0.1310 0.9896 0.2927
vt 0.1929 0.9896 0.2927
vt 0.2549 0.9896 0.2927
vt 0.3168 0.9896 0.2927
vt 0.3168 0.2223 0.4500
vt 0.3787 0.2223 0.4500
vt 0.4407 0.2223 0.4500
vt 0.5026 0.2223 0.4500
vt 0.5646 0.2223 0.4500
vt 0.6265 0.2223 0.4500
vt 0.6885 0.2223 0.4500
vt 0.7504 0.2223 0.4500
vt 0.0071 0.2223 0.4500
vt 0.0690 0.2223 0.4500
vt 0.1310 0.2223 0.4500
vt 0.1929 0.2223 0.4500
vt 0.2549 0.2223 0.4500
vt 0.3788 0.7318 0.4691
vt 0.4407 0.7318 0.4691
vt 0.5027 0.7318 0.4691
vt 0.5646 0.7318 0.4691
vt 0.6266 0.7318 0.4691
vt 0.6885 0.7318 0.4691
vt 0.7504 0.7318 0.4691
vt 0.0071 0.7318 0.4691
vt 0.0690 0.7318 0.4691
vt 0.1310 0.7318 0.4691
vt 0.1929 0.7318 0.4691
vt 0.2549 0.7318 0.4691
vt 0.3168 0.7318 0.4691
vt 0.0046 0.1475 0.5000
vt 0.0869 0.1475 0.5000
vt 0.0869 0.1373 0.5000
vt 0.0046 0.1373 0.5000
vt 0.7906 0.3589 0.0000
vt 0.7593 0.3036 0.0000
vt 0.7597 0.2401 0.0000
vt 0.9089 0.3915 0.0000
vt 0.7919 0.1854 0.0000
vt 0.8471 0.1540 0.0000
vt 0.9654 0.1866 0.0000
vt 0.9106 0.1545 0.0000
vt 0.9967 0.2418 0.0000
vt 0.9963 0.3053 0.0000
vt 0.9641 0.3601 0.0000
vt 0.8454 0.3910 0.0000
vt 0.1692 0.1474 0.5000
vt 0.1692 0.1373 0.5000
vt 0.2515 0.1474 0.5000
vt 0.2515 0.1373 0.5000
vt 0.3338 0.1474 0.5000
vt 0.3338 0.1373 0.5000
vt 0.4161 0.1474 0.5000
vt 0.4161 0.1373 0.5000
vt 0.4984 0.1474 0.5000
vt 0.4984 0.1373 0.5000
vt 0.5807 0.1475 0.5000
vt 0.5807 0.1373 0.5000
vt 0.6630 0.1475 0.5000
vt 0.6630 0.1373 0.5000
vt 0.7453 0.1475 0.5000
vt 0.7453 0.1373 0.5000
vt 0.8276 0.1475 0.5000
vt 0.8276 0.1373 0.5000
vt 0.9099 0.1475 0.5000
vt 0.9099 0.1373 0.5000
vt 0.9922 0.1475 0.5000
vt 0.9922 0.1373 0.5000
vt 0.1692 0.0040 0.3399
vt 0.0869 0.0040 0.3399
vt 0.2515 0.0040 0.3399
vt 0.3338 0.0040 0.3399
vt 0.4161 0.0040 0.3399
vt 0.4984 0.0040 0.3399
vt 0.5807 0.0040 0.3399
vt 0.6630 0.0040 0.3399
vt 0.7453 0.0040 0.3399
vt 0.8276 0.0040 0.3399
vt 0.9099 0.0040 0.3399
vt 0.9922 0.0040 0.3399
vt 0.0046 0.0040 0.3399
vt 0.7591 0.8265 0.0000
vt 0.7972 0.8370 0.0000
vt 0.7969 0.8806 0.0000
vt 0.7587 0.8905 0.0000
vt 0.8560 0.9406 0.0000
vt 0.8455 0.9786 0.0000
vt 0.7903 0.9462 0.0000
vt 0.8184 0.9185 0.0000
vt 0.7915 0.7713 0.0000
vt 0.8192 0.7994 0.0000
vt 0.9112 0.7402 0.0000
vt 0.9007 0.7782 0.0000
vt 0.8571 0.7779 0.0000
vt 0.8472 0.7397 0.0000
vt 0.9976 0.8922 0.0000
vt 0.9595 0.8818 0.0000
vt 0.9598 0.8382 0.0000
vt 0.9980 0.8282 0.0000
vt 0.9664 0.7726 0.0000
vt 0.9383 0.8003 0.0000
vt 0.9652 0.9474 0.0000
vt 0.9375 0.9193 0.0000
vt 0.9095 0.9791 0.0000
vt 0.8996 0.9409 0.0000
# 249 texture coords

g Bullet004
usemtl Material__35
s 1
f 1/1/1 2/2/1 3/3/2 4/4/2 
f 5/5/3 6/6/3 2/2/1 1/1/1 
f 7/7/4 8/8/4 6/6/3 5/5/3 
f 9/9/5 10/10/5 8/8/4 7/7/4 
f 11/11/6 12/12/6 10/10/5 9/9/5 
f 13/13/7 14/14/7 12/12/6 11/11/6 
f 15/15/8 16/16/8 14/14/7 13/13/7 
f 17/17/9 18/18/9 16/19/8 15/20/8 
f 19/21/10 20/22/10 18/18/9 17/17/9 
f 21/23/11 22/24/11 20/22/10 19/21/10 
f 23/25/12 24/26/12 22/24/11 21/23/11 
f 4/4/2 3/3/2 24/26/12 23/25/12 
s 2
f 2/27/13 25/28/13 26/29/14 3/30/14 
f 6/31/15 27/32/15 25/28/13 2/27/13 
f 8/33/16 28/34/16 27/32/15 6/31/15 
f 10/35/17 29/36/17 28/34/16 8/33/16 
f 12/37/18 30/38/18 29/36/17 10/35/17 
f 14/39/19 31/40/19 30/38/18 12/37/18 
f 16/41/20 32/42/20 31/40/19 14/39/19 
f 18/43/21 33/44/21 32/42/20 16/41/20 
f 20/45/22 34/46/22 33/44/21 18/43/21 
f 22/47/23 35/48/23 34/46/22 20/45/22 
f 24/49/24 36/50/24 35/48/23 22/47/23 
f 3/30/14 26/29/14 36/50/24 24/49/24 
f 37/51/25 38/52/25 39/53/26 40/54/26 
f 41/55/27 42/56/27 38/52/25 37/51/25 
f 43/57/28 44/58/28 42/56/27 41/55/27 
f 45/59/29 46/60/29 44/58/28 43/57/28 
f 47/61/30 48/62/30 46/60/29 45/59/29 
f 49/63/31 50/64/31 48/62/30 47/61/30 
f 51/65/32 52/66/32 50/64/31 49/63/31 
f 53/67/33 54/68/33 52/69/32 51/70/32 
f 55/71/34 56/72/34 54/68/33 53/67/33 
f 57/73/35 58/74/35 56/72/34 55/71/34 
f 59/75/36 60/76/36 58/74/35 57/73/35 
f 40/54/26 39/53/26 60/76/36 59/75/36 
s 1
f 38/52/1 61/77/1 62/78/37 39/53/37 
f 42/56/38 63/79/38 61/77/1 38/52/1 
f 44/58/4 64/80/4 63/79/38 42/56/38 
f 46/60/5 65/81/5 64/80/4 44/58/4 
f 48/62/39 66/82/6 65/81/5 46/60/5 
f 50/64/40 67/83/40 66/82/6 48/62/39 
f 52/66/8 68/84/8 67/83/40 50/64/40 
f 54/68/41 69/85/41 68/86/8 52/69/8 
f 56/72/10 70/87/10 69/85/41 54/68/41 
f 58/74/11 71/88/11 70/87/10 56/72/10 
f 60/76/42 72/89/12 71/88/11 58/74/11 
f 39/53/37 62/78/37 72/89/12 60/76/42 
s 2
f 61/90/43 73/91/43 74/92/44 62/93/44 
f 63/94/45 75/95/45 73/91/43 61/90/43 
f 64/96/46 76/97/46 75/95/45 63/94/45 
f 65/41/47 77/98/47 76/97/46 64/96/46 
f 66/99/48 78/100/48 77/98/47 65/41/47 
f 67/101/49 79/102/49 78/100/48 66/99/48 
f 68/47/50 80/103/50 79/102/49 67/101/49 
f 69/49/51 81/104/51 80/103/50 68/47/50 
f 70/105/52 82/106/52 81/104/51 69/49/51 
f 71/107/53 83/108/53 82/106/52 70/105/52 
f 72/31/54 84/109/54 83/108/53 71/107/53 
f 62/93/44 74/92/44 84/109/54 72/31/54 
s 1
f 85/110/55 86/111/56 87/112/57 88/113/58 
f 89/114/59 90/115/60 86/111/56 85/110/55 
f 91/116/61 92/117/62 90/115/60 89/114/59 
f 93/118/63 94/119/64 92/117/62 91/116/61 
f 95/120/65 96/121/66 94/119/64 93/118/63 
f 97/122/67 98/123/68 96/121/66 95/120/65 
f 99/124/69 100/125/70 98/126/68 97/127/67 
f 101/128/71 102/129/72 100/125/70 99/124/69 
f 103/130/73 104/131/74 102/129/72 101/128/71 
f 105/132/75 106/133/76 104/131/74 103/130/73 
f 107/134/77 108/135/78 106/133/76 105/132/75 
f 88/113/58 87/112/57 108/135/78 107/134/77 
f 86/111/56 109/136/79 110/137/80 87/112/57 
f 90/115/60 111/138/81 109/136/79 86/111/56 
f 92/117/62 112/139/82 111/138/81 90/115/60 
f 94/119/64 113/140/83 112/139/82 92/117/62 
f 96/121/66 114/141/84 113/140/83 94/119/64 
f 98/123/68 115/142/85 114/141/84 96/121/66 
f 100/125/70 116/143/86 115/144/85 98/126/68 
f 102/129/72 117/145/87 116/143/86 100/125/70 
f 104/131/74 118/146/88 117/145/87 102/129/72 
f 106/133/76 119/147/89 118/146/88 104/131/74 
f 108/135/78 120/148/90 119/147/89 106/133/76 
f 87/112/57 110/137/80 120/148/90 108/135/78 
s 2
f 21/49/91 19/105/91 17/107/91 4/101/91 
f 17/107/91 15/31/91 13/93/91 9/94/91 
f 13/93/91 11/90/91 9/94/91 
f 9/94/91 7/96/91 5/41/91 4/101/91 
f 5/41/91 1/99/91 4/101/91 
f 17/107/91 9/94/91 4/101/91 
f 23/47/91 21/49/91 4/101/91 
s 1
f 37/51/92 40/54/2 26/149/2 25/150/92 
f 41/55/38 37/51/92 25/150/92 27/151/38 
f 43/57/4 41/55/38 27/151/38 28/152/4 
f 45/59/5 43/57/4 28/152/4 29/153/5 
f 47/61/6 45/59/5 29/153/5 30/154/6 
f 49/63/7 47/61/6 30/154/6 31/155/7 
f 51/65/93 49/63/7 31/155/7 32/156/93 
f 53/67/41 51/70/93 32/157/93 33/158/41 
f 55/71/10 53/67/41 33/158/41 34/159/10 
f 57/73/11 55/71/10 34/159/10 35/160/11 
f 59/75/12 57/73/11 35/160/11 36/161/12 
f 40/54/2 59/75/12 36/161/12 26/149/2 
f 85/110/55 88/113/58 74/162/37 73/163/1 
f 89/114/59 85/110/55 73/163/1 75/164/3 
f 91/116/61 89/114/59 75/164/3 76/165/4 
f 93/118/63 91/116/61 76/165/4 77/166/5 
f 95/120/65 93/118/63 77/166/5 78/167/6 
f 97/122/67 95/120/65 78/167/6 79/168/40 
f 99/124/69 97/127/67 79/169/40 80/170/8 
f 101/128/71 99/124/69 80/170/8 81/171/41 
f 103/130/73 101/128/71 81/171/41 82/172/10 
f 105/132/75 103/130/73 82/172/10 83/173/11 
f 107/134/77 105/132/75 83/173/11 84/174/12 
f 88/113/58 107/134/77 84/174/12 74/162/37 
f 121/175/39 122/176/7 123/177/94 124/178/95 
s 2
f 125/179/96 126/180/97 127/181/97 128/182/98 
f 127/181/97 129/183/99 130/184/99 131/185/97 
f 130/184/99 132/186/97 131/185/97 
f 131/185/97 133/187/97 134/188/99 128/182/98 
f 134/188/99 135/189/99 128/182/98 
f 127/181/97 131/185/97 128/182/98 
f 136/190/97 125/179/96 128/182/98 
s 1
f 137/191/8 138/192/100 123/177/94 122/176/7 
f 139/193/41 140/194/101 138/192/100 137/191/8 
f 141/195/102 142/196/103 140/194/101 139/193/41 
f 143/197/104 144/198/105 142/196/103 141/195/102 
f 145/199/42 146/200/106 144/198/105 143/197/104 
f 147/201/37 148/202/107 146/200/106 145/199/42 
f 149/203/1 150/204/108 148/202/107 147/201/37 
f 151/205/38 152/206/109 150/204/108 149/203/1 
f 153/207/4 154/208/110 152/206/109 151/205/38 
f 155/209/111 156/210/112 154/208/110 153/207/4 
f 121/211/39 124/212/95 156/210/112 155/209/111 
f 138/192/100 125/213/113 136/214/114 123/177/94 
f 140/194/101 126/215/115 125/213/113 138/192/100 
f 142/196/103 127/216/116 126/215/115 140/194/101 
f 144/198/105 129/217/117 127/216/116 142/196/103 
f 146/200/106 130/218/118 129/217/117 144/198/105 
f 148/202/107 132/219/119 130/218/118 146/200/106 
f 150/204/108 131/220/120 132/219/119 148/202/107 
f 152/206/109 133/221/121 131/220/120 150/204/108 
f 154/208/110 134/222/122 133/221/121 152/206/109 
f 156/210/112 135/223/123 134/222/122 154/208/110 
f 124/212/95 128/224/124 135/223/123 156/210/112 
f 123/177/94 136/214/114 128/225/124 124/178/95 
s off
f 112/226/97 141/227/97 139/228/97 111/229/97 
f 122/230/97 110/231/97 109/232/97 137/233/97 
f 137/233/97 109/232/97 111/229/97 139/228/97 
f 113/234/97 143/235/97 141/227/97 112/226/97 
f 115/236/97 147/237/97 145/238/97 114/239/97 
f 143/235/97 113/234/97 114/239/97 145/238/97 
f 118/240/99 153/241/99 151/242/99 117/243/99 
f 147/237/97 115/236/97 116/244/97 149/245/97 
f 149/245/97 116/244/97 117/243/97 151/242/97 
f 119/246/99 155/247/99 153/241/99 118/240/99 
f 120/248/99 121/249/99 155/247/99 119/246/99 
f 110/231/99 122/230/99 121/249/99 120/248/99 
# 150 polygons - 8 triangles

